\relax 
\providecommand\hyper@newdestlabel[2]{}
\catcode `:\active 
\catcode `;\active 
\catcode `!\active 
\catcode `?\active 
\providecommand\HyperFirstAtBeginDocument{\AtBeginDocument}
\HyperFirstAtBeginDocument{\ifx\hyper@anchor\@undefined
\global\let\oldcontentsline\contentsline
\gdef\contentsline#1#2#3#4{\oldcontentsline{#1}{#2}{#3}}
\global\let\oldnewlabel\newlabel
\gdef\newlabel#1#2{\newlabelxx{#1}#2}
\gdef\newlabelxx#1#2#3#4#5#6{\oldnewlabel{#1}{{#2}{#3}}}
\AtEndDocument{\ifx\hyper@anchor\@undefined
\let\contentsline\oldcontentsline
\let\newlabel\oldnewlabel
\fi}
\fi}
\global\let\hyper@last\relax 
\gdef\HyperFirstAtBeginDocument#1{#1}
\providecommand\HyField@AuxAddToFields[1]{}
\providecommand\HyField@AuxAddToCoFields[2]{}
\select@language{french}
\@writefile{toc}{\select@language{french}}
\@writefile{lof}{\select@language{french}}
\@writefile{lot}{\select@language{french}}
\@writefile{toc}{\contentsline {part}{Pr\IeC {\'e}ambule}{1}{section*.1}}
\@writefile{toc}{\contentsline {paragraph}{\relax \fontsize  {24.88}{30}\selectfont  {Pr\IeC {\'e}ambule}}{2}{section*.2}}
\@writefile{toc}{\contentsline {paragraph}{}{2}{section*.3}}
\@writefile{toc}{\contentsline {section}{\numberline {1}Probl\IeC {\'e}matique}{3}{section.1}}
\@writefile{toc}{\contentsline {section}{\numberline {2}La connexion}{3}{section.2}}
\@writefile{toc}{\contentsline {section}{\numberline {3}Inscription}{3}{section.3}}
\@writefile{toc}{\contentsline {subsection}{\numberline {3.1}La modification du profil}{4}{subsection.3.1}}
\@writefile{toc}{\contentsline {section}{\numberline {4}Les Abonnements}{4}{section.4}}
\@writefile{toc}{\contentsline {section}{\numberline {5}Les Tweets}{5}{section.5}}
\@writefile{toc}{\contentsline {section}{\numberline {6}Les Commentaires}{5}{section.6}}
\@writefile{toc}{\contentsline {section}{\numberline {7}Les Hashtags}{6}{section.7}}
\@writefile{toc}{\contentsline {section}{\numberline {8}Les Messages Priv\IeC {\'e}s}{7}{section.8}}
\@writefile{toc}{\contentsline {section}{\numberline {9}Le style de l'application}{7}{section.9}}
